Division,WeightClassKg,Place,Name,Team,BodyweightKg,Best3SquatKg,Best3BenchKg,Best3DeadliftKg,TotalKg,Equipment,Event,Sex,BirthDate
Boys,51.71,1,Aj Sneed,Richardson Lake Highlands,50.8,142.88,77.11,145.15,365.14,Single-ply,SBD,M,
Boys,55.79,1,Luele Daniel,Richardson Pearce,54.43,97.52,56.7,102.06,256.28,Single-ply,SBD,M,
Boys,59.87,1,Torionte Franklin,Richardson,59.42,113.4,65.77,138.35,317.51,Single-ply,SBD,M,
Boys,59.87,2,Devonte Watson,Richardson Lake Highlands,56.7,113.4,61.23,136.08,310.71,Single-ply,SBD,M,
Boys,59.87,3,Cooper Roberts,Dallas Highland Park,57.15,108.86,72.57,117.93,299.37,Single-ply,SBD,M,
Boys,67.13,1,Otrendon Johnson,Richardson Berkner,66.22,156.49,86.18,170.1,412.77,Single-ply,SBD,M,
Boys,74.84,1,Idris Tanner,Richardson Berkner,74.12,188.24,120.2,215.46,523.9,Single-ply,SBD,M,
Boys,74.84,2,De'quan Landon,Richardson Pearce,74.39,183.7,106.59,174.63,464.93,Single-ply,SBD,M,
Boys,74.84,3,Jackson Mize,Richardson Pearce,73.94,154.22,113.4,185.97,453.59,Single-ply,SBD,M,
Boys,74.84,4,Kevin Velasco,Richardson,74.84,147.42,88.45,174.63,410.5,Single-ply,SBD,M,
Boys,74.84,5,Mason Jones,Dallas Highland Park,74.84,161.03,88.45,151.95,401.43,Single-ply,SBD,M,
Boys,74.84,6,Josiah Ingram,Richardson,68.49,136.08,70.31,165.56,371.95,Single-ply,SBD,M,
Boys,74.84,7,Brandon Nieto,Richardson Berkner,69.76,117.93,65.77,88.45,272.16,Single-ply,SBD,M,
Boys,82.1,1,Francisco Rodriguez,Richardson Berkner,79.92,172.37,115.67,210.92,498.95,Single-ply,SBD,M,
Boys,82.1,2,David Lightbourn,Dallas Highland Park,81.65,172.37,106.59,181.44,460.4,Single-ply,SBD,M,
Boys,82.1,3,Kam Lewis,Richardson,76.66,170.1,111.13,174.63,455.86,Single-ply,SBD,M,
Boys,82.1,4,Peter Nettleton,Dallas Highland Park,80.29,170.1,108.86,167.83,446.79,Single-ply,SBD,M,
Boys,82.1,5,Madisen Gattis,Richardson,80.74,165.56,97.52,181.44,444.52,Single-ply,SBD,M,
Boys,82.1,6,Donnel Tyler,Richardson Lake Highlands,77.11,142.88,90.72,176.9,410.5,Single-ply,SBD,M,
Boys,82.1,7,Marcus Jackson,Richardson,81.19,151.95,88.45,170.1,410.5,Single-ply,SBD,M,
Boys,82.1,8,Isaac Martinez,Richardson Pearce,81.19,136.08,90.72,151.95,378.75,Single-ply,SBD,M,
Boys,89.81,1,Cameron Laurie,Dallas Highland Park,89.81,201.85,124.74,195.04,521.63,Single-ply,SBD,M,
Boys,89.81,2,Victor Turner,Richardson Berkner,85.55,185.97,104.33,185.97,476.27,Single-ply,SBD,M,
Boys,89.81,3,Jared Johnson,Richardson Lake Highlands,88.9,170.1,113.4,181.44,464.93,Single-ply,SBD,M,
Boys,89.81,4,Latrell Dawson,Richardson Lake Highlands,84.37,158.76,92.99,176.9,428.64,Single-ply,SBD,M,
Boys,89.81,5,Ara Shah-Mohammed,Richardson,86.18,151.95,97.52,151.95,401.43,Single-ply,SBD,M,
Boys,89.81,6,Spencer Bell,Dallas Highland Park,83.91,142.88,95.25,138.35,376.48,Single-ply,SBD,M,
Boys,89.81,DQ,Alex Weiss,Richardson Pearce,83.91,,102.06,174.63,,Single-ply,SBD,M,
Boys,89.81,DQ,Jimmy Acosta,Richardson Pearce,88.9,195.04,,210.92,,Single-ply,SBD,M,
Boys,99.79,1,Rodolfo Ramirez,Richardson Pearce,97.07,222.26,111.13,224.53,557.92,Single-ply,SBD,M,
Boys,99.79,2,Ryan Olds,Dallas Highland Park,99.79,201.85,133.81,201.85,537.51,Single-ply,SBD,M,
Boys,99.79,3,Chance Price,Richardson Pearce,92.99,226.8,113.4,192.78,532.97,Single-ply,SBD,M,
Boys,99.79,4,Tomaso Brown,Richardson,93.44,181.44,133.81,210.92,526.17,Single-ply,SBD,M,
Boys,99.79,5,Andy Jordan,Richardson Lake Highlands,97.52,183.7,124.74,204.12,512.56,Single-ply,SBD,M,
Boys,99.79,6,Raymond Garcia,Richardson Lake Highlands,99.34,183.7,113.4,192.78,489.88,Single-ply,SBD,M,
Boys,99.79,7,Zhmari Edwards,Richardson Lake Highlands,92.99,192.78,111.13,174.63,478.54,Single-ply,SBD,M,
Boys,99.79,8,Paul Flowers,Dallas Highland Park,95.25,192.78,104.33,156.49,453.59,Single-ply,SBD,M,
Boys,99.79,9,Whit Basso,Dallas Highland Park,90.72,138.35,79.38,142.88,360.61,Single-ply,SBD,M,
Boys,99.79,DQ,Jake Watts,Dallas Highland Park,95.25,149.69,,149.69,,Single-ply,SBD,M,
Boys,109.77,1,Kaleb White,Richardson,106.14,233.6,129.27,238.14,601.01,Single-ply,SBD,M,
Boys,109.77,2,Josh Horlick,Richardson Pearce,108.41,219.99,133.81,219.99,573.79,Single-ply,SBD,M,
Boys,109.77,3,Jackson Versfelt,Richardson Lake Highlands,108.86,210.92,115.67,215.46,542.04,Single-ply,SBD,M,
Boys,109.77,4,John Velez,Richardson Berkner,108.5,195.04,127.01,167.83,489.88,Single-ply,SBD,M,
Boys,109.77,5,Caleb Madden,Dallas Highland Park,100.24,181.44,113.4,190.51,485.34,Single-ply,SBD,M,
Boys,109.77,6,Aiden McCook,Richardson Pearce,109.77,179.17,83.91,188.24,451.32,Single-ply,SBD,M,
Boys,109.77,7,Derek Innman,Dallas Highland Park,102.06,154.22,92.99,158.76,405.97,Single-ply,SBD,M,
Boys,109.77,8,Testimony Lucas,Richardson,106.14,142.88,83.91,179.17,405.97,Single-ply,SBD,M,
Boys,109.77,9,Kaleb Franklin,Richardson Berkner,103.15,142.88,88.45,156.49,387.82,Single-ply,SBD,M,
Boys,124.74,1,Cam Reeves,Richardson,117.93,215.46,140.61,210.92,566.99,Single-ply,SBD,M,
Boys,124.74,2,Henry Hagenbuch,Dallas Highland Park,120.2,206.38,120.2,181.44,508.02,Single-ply,SBD,M,
Boys,124.74,3,Alex Salgado,Richardson Berkner,122.83,204.12,102.06,197.31,503.49,Single-ply,SBD,M,
Boys,124.74,4,Osamudiamen Ogiemwonyi,Richardson Lake Highlands,110.22,199.58,102.06,185.97,487.61,Single-ply,SBD,M,
Boys,124.74,5,Shawn Digianvittorio,Richardson Berkner,121.93,131.54,81.65,145.15,358.34,Single-ply,SBD,M,
Boys,124.74+,1,Braylyn Tennon,Richardson Berkner,142.79,235.87,113.4,222.26,571.53,Single-ply,SBD,M,
Boys,124.74+,2,Sam Odelami,Richardson Lake Highlands,125.19,192.78,108.86,233.6,535.24,Single-ply,SBD,M,
Boys,124.74+,3,Will Gibson,Dallas Highland Park,127.01,208.65,124.74,192.78,526.17,Single-ply,SBD,M,
Boys,124.74+,4,Canyon Wadsworth,Richardson Pearce,128.82,163.29,127.01,192.78,483.08,Single-ply,SBD,M,
Boys,124.74+,5,Dehaven Sumlin,Richardson Berkner,128.37,124.74,70.31,70.31,265.35,Single-ply,SBD,M,
